prosperLoanData
…
1.3. Uma seo final chamada Reflexo

Esta deve conter algumas frases sobre suas dificuldades, sucessos, e idias para exploraes futures neste mesmo conjunto de dados.

2. PREPARAO DO AMBIENTE E DO CONJUNTO DE DADOS

2.1. Carga, Limpeza e Transformaes do conjunto de dados

## [1] "> Aes realizadas nesta etapa:"

## [1] "> carga do conjunto de dados prosperLoanData.csv"

## [1] "> remoo de registros duplicados"

## # A tibble: 827 x 2
##                    LoanKey     n
##                     <fctr> <int>
##  1 001D370202065948445765E     2
##  2 009C36959125842600757B0     2
##  3 01663704101754715CF7C56     2
##  4 017637048068403015E470D     2
##  5 01C83707282210922790778     2
##  6 02163700809231365A56A1C     2
##  7 0224369791751850396C2F3     2
##  8 0275370118102352450205B     2
##  9 02983704628886994482743     2
## 10 02D137079845719197ACFE8     2
## # ... with 817 more rows
…
